<svg xmlns="http://www.w3.org/2000/svg" width="52" height="28" viewBox="0 0 26 14">
  <metadata><?xpacket begin="﻿" id="W5M0MpCehiHzreSzNTczkc9d"?>
<x:xmpmeta xmlns:x="adobe:ns:meta/" x:xmptk="Adobe XMP Core 5.6-c140 79.160451, 2017/05/06-01:08:21        ">
   <rdf:RDF xmlns:rdf="http://www.w3.org/1999/02/22-rdf-syntax-ns#">
      <rdf:Description rdf:about=""/>
   </rdf:RDF>
</x:xmpmeta>
                                                                                                    
                                                                                                    
                                                                                                    
                                                                                                    
                                                                                                    
                                                                                                    
                                                                                                    
                                                                                                    
                                                                                                    
                                                                                                    
                                                                                                    
                                                                                                    
                                                                                                    
                                                                                                    
                                                                                                    
                                                                                                    
                                                                                                    
                                                                                                    
                                                                                                    
                                                                                                    
                           
<?xpacket end="w"?></metadata>
<defs>
    <style>
      #Pin_3 {
        fill: #464646;
        fill-rule: evenodd;
      }
    </style>
  </defs>
  <path id="Pin_3" data-name="Pin 3" class="cls-1" d="M1300,3203.17v-2.34c0-1.16-1.78-1.16-1.78-1.2v4.7S1300,3204.33,1300,3203.17Zm-4.85-8.17h-18.66a2.5,2.5,0,0,0-2.49,2.55v8.9a2.48,2.48,0,0,0,2.49,2.55h18.66a2.48,2.48,0,0,0,2.49-2.55v-8.9A2.48,2.48,0,0,0,1295.15,3195Zm1.3,11.54a1.252,1.252,0,0,1-1.25,1.29h-18.77a1.252,1.252,0,0,1-1.25-1.29v-9.08a1.252,1.252,0,0,1,1.25-1.29h18.77a1.219,1.219,0,0,1,1.25,1.29v9.08Zm-8.93.65h-10.34a0.815,0.815,0,0,1-.82-0.81v-8.76a0.815,0.815,0,0,1,.82-0.81h10.34a0.807,0.807,0,0,1,.81.81v8.76A0.807,0.807,0,0,1,1287.52,3207.19Z" transform="translate(-1274 -3195)"/>
</svg>
