<svg xmlns="http://www.w3.org/2000/svg" width="40" height="48" viewBox="0 0 20 24">
  <metadata><?xpacket begin="﻿" id="W5M0MpCehiHzreSzNTczkc9d"?>
<x:xmpmeta xmlns:x="adobe:ns:meta/" x:xmptk="Adobe XMP Core 5.6-c140 79.160451, 2017/05/06-01:08:21        ">
   <rdf:RDF xmlns:rdf="http://www.w3.org/1999/02/22-rdf-syntax-ns#">
      <rdf:Description rdf:about=""/>
   </rdf:RDF>
</x:xmpmeta>
                                                                                                    
                                                                                                    
                                                                                                    
                                                                                                    
                                                                                                    
                                                                                                    
                                                                                                    
                                                                                                    
                                                                                                    
                                                                                                    
                                                                                                    
                                                                                                    
                                                                                                    
                                                                                                    
                                                                                                    
                                                                                                    
                                                                                                    
                                                                                                    
                                                                                                    
                                                                                                    
                           
<?xpacket end="w"?></metadata>
<defs>
    <style>
      #Android {
        fill: #a3c439;
        fill-rule: evenodd;
        opacity: 0.5;
      }
    </style>
  </defs>
  <path id="Android" class="cls-1" d="M1833.5,2147.99a1.538,1.538,0,0,0,1.5-1.5v-3.51h1a0.945,0.945,0,0,0,1-1v-10.02h-12v10.02a0.945,0.945,0,0,0,1,1h1v3.51a1.5,1.5,0,0,0,3,0v-3.51h2v3.51A1.538,1.538,0,0,0,1833.5,2147.99Zm6-6.01a1.531,1.531,0,0,0,1.49-1.51v-7.01a1.5,1.5,0,1,0-2.99,0v7.01A1.54,1.54,0,0,0,1839.5,2141.98Zm-17,0a1.54,1.54,0,0,0,1.5-1.51v-7.01a1.5,1.5,0,1,0-2.99,0v7.01A1.531,1.531,0,0,0,1822.5,2141.98Zm13.3-17.83a0.483,0.483,0,0,0-.7,0l-1.34,1.34-0.06.06a5.911,5.911,0,0,0-2.69-.6h-0.02a5.911,5.911,0,0,0-2.69.6l-0.06-.06-1.34-1.34a0.495,0.495,0,0,0-.7.7l1.3,1.3a5.419,5.419,0,0,0-1.13,1.01,5.9,5.9,0,0,0-1.36,3.48v0.05a2.437,2.437,0,0,0-.01.27h12c0-.09-0.01-0.18-0.01-0.27v-0.05a5.9,5.9,0,0,0-1.36-3.48,5.419,5.419,0,0,0-1.13-1.01l1.3-1.3A0.483,0.483,0,0,0,1835.8,2124.15Zm-7.3,5.06a0.755,0.755,0,1,1,.75-0.75A0.755,0.755,0,0,1,1828.5,2129.21Zm5,0a0.755,0.755,0,1,1,.75-0.75A0.755,0.755,0,0,1,1833.5,2129.21Z" transform="translate(-1821 -2124)"/>
</svg>
